IEMI testbed/EMI_injection_captures/T0004CH1.CSV

Model,MSO2024B
Firmware Version,1.56

Point Format,Y,
Horizontal Units,S,
Horizontal Scale,0.02,
Sample Interval,1.6e-06,
Filter Frequency,2e+08,
Record Length,125000,
Gating,0.0% to 100.0%,
Probe Attenuation,10,
Vertical Units,V,
Vertical Offset,0,
Vertical Scale,1,
Label,,
TIME,CH1,CH1 Peak Detect
-9.98048e-02,-0.58,0.94
-9.98032e-02,0.54,-1.06
-9.98016e-02,0.86,0.98
-9.98000e-02,-0.0999999,-1.06
-9.97984e-02,-0.82,0.98
-9.97968e-02,-0.58,-1.06
-9.97952e-02,0.54,0.98
-9.97936e-02,0.9,-1.06
-9.97920e-02,-0.14,0.98
-9.97904e-02,-0.82,-1.02
-9.97888e-02,-0.58,0.98
-9.97872e-02,0.5,-1.06
-9.97856e-02,0.9,0.98
-9.97840e-02,-0.14,-1.06
-9.97824e-02,-0.78,0.98
-9.97808e-02,-0.62,-1.02
-9.97792e-02,0.5,0.98
-9.97776e-02,0.86,-1.02
-9.97760e-02,-0.0999999,0.98
-9.97744e-02,-0.82,-1.02
-9.97728e-02,-0.58,0.98
-9.97712e-02,0.54,-1.02
-9.97696e-02,0.86,0.98
-9.97680e-02,-0.0999999,-1.02
-9.97664e-02,-0.78,0.98
-9.97648e-02,-0.58,-1.02
-9.97632e-02,0.5,0.98
-9.97616e-02,0.86,-1.02
-9.97600e-02,-0.0999999,0.98
-9.97584e-02,-0.78,-1.06
-9.97568e-02,-0.58,0.98
-9.97552e-02,0.5,-1.02
-9.97536e-02,0.86,0.98
-9.97520e-02,-0.14,-1.02
-9.97504e-02,-0.82,0.98
-9.97488e-02,-0.62,-1.02
-9.97472e-02,0.5,0.98
-9.97456e-02,0.86,-1.02
-9.97440e-02,-0.0999999,0.98
-9.97424e-02,-0.78,-1.02
-9.97408e-02,-0.62,0.98
-9.97392e-02,0.5,-1.02
-9.97376e-02,0.86,0.98
-9.97360e-02,-0.0999999,-1.02
-9.97344e-02,-0.82,0.98
-9.97328e-02,-0.62,-1.02
-9.97312e-02,0.46,0.94
-9.97296e-02,0.82,-1.02
-9.97280e-02,-0.0999999,0.98
-9.97264e-02,-0.82,-1.02
-9.97248e-02,-0.62,0.98
-9.97232e-02,0.46,-1.02
-9.97216e-02,0.86,0.98
-9.97200e-02,-0.0999999,-1.02
-9.97184e-02,-0.78,0.94
-9.97168e-02,-0.62,-1.02
-9.97152e-02,0.46,0.94
-9.97136e-02,0.86,-1.02
-9.97120e-02,-0.0999999,0.94
-9.97104e-02,-0.82,-1.02
-9.97088e-02,-0.62,0.94
-9.97072e-02,0.5,-1.02
-9.97056e-02,0.86,0.94
-9.97040e-02,-0.0999999,-1.02
-9.97024e-02,-0.82,0.94
-9.97008e-02,-0.62,-1.02
-9.96992e-02,0.5,0.94
-9.96976e-02,0.9,-1.02
-9.96960e-02,-0.0999999,0.94
-9.96944e-02,-0.82,-1.02
-9.96928e-02,-0.62,0.94
-9.96912e-02,0.46,-1.02
-9.96896e-02,0.86,0.94
-9.96880e-02,-0.0199999,-1.02
-9.96864e-02,-0.82,0.94
-9.96848e-02,-0.62,-1.02
-9.96832e-02,0.46,0.94
-9.96816e-02,0.9,-1.02
-9.96800e-02,-0.0199999,0.94
-9.96784e-02,-0.78,-1.02
-9.96768e-02,-0.62,0.94
-9.96752e-02,0.42,-1.06
-9.96736e-02,0.86,0.94
-9.96720e-02,-0.0199999,-1.02
-9.96704e-02,-0.78,0.94
-9.96688e-02,-0.66,-1.02
-9.96672e-02,0.46,0.94
-9.96656e-02,0.9,-1.02
-9.96640e-02,0.0200001,0.98
-9.96624e-02,-0.78,-1.02
-9.96608e-02,-0.62,0.94
-9.96592e-02,0.46,-1.02
-9.96576e-02,0.9,0.94
-9.96560e-02,-0.0199999,-1.02
-9.96544e-02,-0.78,0.98
-9.96528e-02,-0.66,-1.02
-9.96512e-02,0.42,0.94
-9.96496e-02,0.94,-1.02
-9.96480e-02,0.0200001,0.98
-9.96464e-02,-0.78,-1.02
-9.96448e-02,-0.66,0.94
-9.96432e-02,0.46,-1.02
-9.96416e-02,0.9,0.98
-9.96400e-02,0.0200001,-1.02
-9.96384e-02,-0.78,0.98
-9.96368e-02,-0.62,-1.02
-9.96352e-02,0.46,0.98
-9.96336e-02,0.9,-1.06
-9.96320e-02,0.0200001,0.98
-9.96304e-02,-0.82,-1.02
-9.96288e-02,-0.66,0.98
-9.96272e-02,0.42,-1.02
-9.96256e-02,0.94,0.98
-9.96240e-02,0.0200001,-1.02
-9.96224e-02,-0.78,0.98
-9.96208e-02,-0.66,-1.02
-9.96192e-02,0.42,0.98
-9.96176e-02,0.9,-1.02
-9.96160e-02,0.0200001,0.98
-9.96144e-02,-0.78,-1.02
-9.96128e-02,-0.62,0.98
-9.96112e-02,0.42,-1.02
-9.96096e-02,0.9,0.98
-9.96080e-02,0.0200001,-1.02
-9.96064e-02,-0.74,0.98
-9.96048e-02,-0.66,-1.02
-9.96032e-02,0.42,0.98
-9.96016e-02,0.94,-1.06
-9.96000e-02,0.0200001,0.98
-9.95984e-02,-0.78,-1.02
-9.95968e-02,-0.66,0.98
-9.95952e-02,0.46,-1.02
-9.95936e-02,0.94,0.98
-9.95920e-02,0.0200001,-1.02
-9.95904e-02,-0.78,0.98
-9.95888e-02,-0.66,-1.02
-9.95872e-02,0.46,0.98
-9.95856e-02,0.94,-1.02
-9.95840e-02,0.0200001,0.98
-9.95824e-02,-0.78,-1.02
-9.95808e-02,-0.66,0.98
-9.95792e-02,0.42,-1.02
-9.95776e-02,0.94,0.98
-9.95760e-02,0.0200001,-1.06
-9.95744e-02,-0.78,0.98
-9.95728e-02,-0.66,-1.02
-9.95712e-02,0.42,0.98
-9.95696e-02,0.94,-1.06
-9.95680e-02,0.0600001,0.98
-9.95664e-02,-0.78,-1.02
-9.95648e-02,-0.66,0.98
-9.95632e-02,0.42,-1.02
-9.95616e-02,0.94,0.98
-9.95600e-02,0.0200001,-1.06
-9.95584e-02,-0.78,0.98
-9.95568e-02,-0.66,-1.06
-9.95552e-02,0.42,0.98
-9.95536e-02,0.94,-1.06
-9.95520e-02,0.0200001,0.98
-9.95504e-02,-0.78,-1.02
-9.95488e-02,-0.66,0.98
-9.95472e-02,0.38,-1.06
-9.95456e-02,0.94,0.98
-9.95440e-02,0.0200001,-1.06
-9.95424e-02,-0.74,0.98
-9.95408e-02,-0.66,-1.06
-9.95392e-02,0.42,0.98
-9.95376e-02,0.94,-1.06
-9.95360e-02,0.0600001,0.98
-9.95344e-02,-0.74,-1.02
-9.95328e-02,-0.7,0.98
-9.95312e-02,0.42,-1.06
-9.95296e-02,0.94,0.98
-9.95280e-02,0.0200001,-1.06
-9.95264e-02,-0.74,0.98
-9.95248e-02,-0.66,-1.06
-9.95232e-02,0.42,0.94
-9.95216e-02,0.94,-1.06
-9.95200e-02,0.0200001,0.98
-9.95184e-02,-0.74,-1.06
-9.95168e-02,-0.7,0.94
-9.95152e-02,0.38,-1.06
-9.95136e-02,0.94,0.98
-9.95120e-02,0.0200001,-1.06
-9.95104e-02,-0.74,0.98
-9.95088e-02,-0.66,-1.06
-9.95072e-02,0.38,0.98
-9.95056e-02,0.98,-1.06
-9.95040e-02,0.0200001,0.94
-9.95024e-02,-0.78,-1.06
-9.95008e-02,-0.66,0.98
-9.94992e-02,0.38,-1.06
-9.94976e-02,0.94,0.98
-9.94960e-02,0.0200001,-1.06
-9.94944e-02,-0.74,0.94
-9.94928e-02,-0.7,-1.06
-9.94912e-02,0.42,0.94
-9.94896e-02,0.94,-1.02
-9.94880e-02,0.0200001,0.94
-9.94864e-02,-0.74,-1.06
-9.94848e-02,-0.7,0.94
-9.94832e-02,0.38,-1.06
-9.94816e-02,0.9,0.94
-9.94800e-02,0.0600001,-1.06
-9.94784e-02,-0.74,0.94
-9.94768e-02,-0.7,-1.06
-9.94752e-02,0.42,0.94
-9.94736e-02,0.9,-1.06
-9.94720e-02,0.0600001,0.94
-9.94704e-02,-0.74,-1.02
-9.94688e-02,-0.7,0.94
-9.94672e-02,0.38,-1.06
-9.94656e-02,0.9,0.98
-9.94640e-02,0.0600001,-1.02
-9.94624e-02,-0.74,0.94
-9.94608e-02,-0.7,-1.02
-9.94592e-02,0.38,0.94
-9.94576e-02,0.94,-1.02
-9.94560e-02,0.0600001,0.94
-9.94544e-02,-0.74,-1.06
-9.94528e-02,-0.7,0.94
-9.94512e-02,0.38,-1.06
-9.94496e-02,0.94,0.94
-9.94480e-02,0.0600001,-1.02
-9.94464e-02,-0.74,0.94
-9.94448e-02,-0.7,-1.02
-9.94432e-02,0.34,0.94
-9.94416e-02,0.9,-1.02
-9.94400e-02,0.0600001,0.98
-9.94384e-02,-0.74,-1.06
-9.94368e-02,-0.7,0.94
-9.94352e-02,0.34,-1.02
-9.94336e-02,0.94,0.94
-9.94320e-02,0.0600001,-1.02
-9.94304e-02,-0.78,0.94
-9.94288e-02,-0.66,-1.06
-9.94272e-02,0.38,0.94
-9.94256e-02,0.9,-1.02
-9.94240e-02,0.0600001,0.94
-9.94224e-02,-0.74,-1.02
-9.94208e-02,-0.7,0.98
-9.94192e-02,0.3,-1.02
-9.94176e-02,0.94,0.98
-9.94160e-02,0.1,-1.02
-9.94144e-02,-0.78,0.98
-9.94128e-02,-0.7,-1.06
-9.94112e-02,0.34,0.98
-9.94096e-02,0.94,-1.02
-9.94080e-02,0.14,0.98
-9.94064e-02,-0.74,-1.02
-9.94048e-02,-0.7,0.98
-9.94032e-02,0.34,-1.02
-9.94016e-02,0.94,0.98
-9.94000e-02,0.14,-1.02
-9.93984e-02,-0.78,0.98
-9.93968e-02,-0.7,-1.02
-9.93952e-02,0.34,0.98
-9.93936e-02,0.94,-1.02
-9.93920e-02,0.14,0.98
-9.93904e-02,-0.74,-1.02
-9.93888e-02,-0.74,0.98
-9.93872e-02,0.3,-1.02
-9.93856e-02,0.94,1.02
-9.93840e-02,0.14,-1.02
-9.93824e-02,-0.74,1.02
-9.93808e-02,-0.7,-0.98
-9.93792e-02,0.34,0.98
-9.93776e-02,0.94,-1.02
-9.93760e-02,0.14,1.02
-9.93744e-02,-0.74,-1.02
-9.93728e-02,-0.7,0.98
-9.93712e-02,0.34,-1.02
-9.93696e-02,0.94,0.98
-9.93680e-02,0.18,-1.02
-9.93664e-02,-0.7,1.02
-9.93648e-02,-0.7,-0.98
-9.93632e-02,0.3,1.02
-9.93616e-02,0.94,-0.98
-9.93600e-02,0.14,1.02
-9.93584e-02,-0.74,-0.98
-9.93568e-02,-0.74,1.02
-9.93552e-02,0.3,-1.02
-9.93536e-02,0.94,1.02
-9.93520e-02,0.18,-0.98
-9.93504e-02,-0.7,0.98
-9.93488e-02,-0.74,-0.98
-9.93472e-02,0.3,0.98
-9.93456e-02,0.94,-1.02
-9.93440e-02,0.18,1.02
-9.93424e-02,-0.74,-0.98
-9.93408e-02,-0.74,0.98
-9.93392e-02,0.3,-1.02
-9.93376e-02,0.94,0.98
-9.93360e-02,0.14,-1.02
-9.93344e-02,-0.7,1.02
-9.93328e-02,-0.7,-1.02
-9.93312e-02,0.3,1.02
-9.93296e-02,0.94,-0.98
-9.93280e-02,0.18,0.98
-9.93264e-02,-0.7,-0.98
-9.93248e-02,-0.74,1.02
-9.93232e-02,0.3,-0.98
-9.93216e-02,0.94,1.02
-9.93200e-02,0.14,-0.98
-9.93184e-02,-0.74,1.02
-9.93168e-02,-0.74,-1.02
-9.93152e-02,0.3,0.98
-9.93136e-02,0.94,-0.98
-9.93120e-02,0.18,1.02
-9.93104e-02,-0.7,-0.98
-9.93088e-02,-0.74,1.02
-9.93072e-02,0.3,-0.98
-9.93056e-02,0.94,1.02
-9.93040e-02,0.18,-0.98
-9.93024e-02,-0.7,1.02
-9.93008e-02,-0.74,-0.98
-9.92992e-02,0.3,0.98
-9.92976e-02,0.98,-1.02
-9.92960e-02,0.14,0.98
-9.92944e-02,-0.7,-1.02
-9.92928e-02,-0.74,0.98
-9.92912e-02,0.3,-1.02
-9.92896e-02,1.02,1.02
-9.92880e-02,0.18,-1.02
-9.92864e-02,-0.7,1.02
-9.92848e-02,-0.74,-1.02
-9.92832e-02,0.3,1.02
-9.92816e-02,0.98,-1.02
-9.92800e-02,0.18,1.02
-9.92784e-02,-0.66,-0.98
-9.92768e-02,-0.78,1.02
-9.92752e-02,0.3,-1.02
-9.92736e-02,0.94,1.02
-9.92720e-02,0.18,-1.02
-9.92704e-02,-0.7,1.02
-9.92688e-02,-0.74,-1.02
-9.92672e-02,0.3,1.02
-9.92656e-02,1.02,-1.02
-9.92640e-02,0.18,1.02
-9.92624e-02,-0.66,-1.02
-9.92608e-02,-0.74,1.02
-9.92592e-02,0.26,-1.02
-9.92576e-02,0.98,1.02
-9.92560e-02,0.18,-1.02
-9.92544e-02,-0.66,1.02
-9.92528e-02,-0.82,-1.02
-9.92512e-02,0.26,1.02
-9.92496e-02,1.02,-1.06
-9.92480e-02,0.18,1.02
-9.92464e-02,-0.7,-1.02
-9.92448e-02,-0.74,1.02
-9.92432e-02,0.26,-1.06
-9.92416e-02,0.98,0.98
-9.92400e-02,0.18,-1.02
-9.92384e-02,-0.66,1.02
-9.92368e-02,-0.74,-1.02
-9.92352e-02,0.26,1.02
-9.92336e-02,0.98,-1.06
-9.92320e-02,0.18,1.02
-9.92304e-02,-0.7,-1.06
-9.92288e-02,-0.78,0.98
-9.92272e-02,0.26,-1.06
-9.92256e-02,0.98,0.98
-9.92240e-02,0.14,-1.06
-9.92224e-02,-0.66,1.02
-9.92208e-02,-0.78,-1.02
-9.92192e-02,0.22,1.02
-9.92176e-02,0.98,-1.06
-9.92160e-02,0.18,1.02
-9.92144e-02,-0.7,-1.06
-9.92128e-02,-0.74,1.02
-9.92112e-02,0.26,-1.06
-9.92096e-02,0.98,1.02
-9.92080e-02,0.22,-1.06
-9.92064e-02,-0.66,1.02
-9.92048e-02,-0.74,-1.02
-9.92032e-02,0.26,0.98
-9.92016e-02,0.94,-1.02
-9.92000e-02,0.18,1.02
-9.91984e-02,-0.66,-1.02
-9.91968e-02,-0.74,0.98
-9.91952e-02,0.26,-1.02
-9.91936e-02,0.98,0.98
-9.91920e-02,0.18,-1.02
-9.91904e-02,-0.7,0.98
-9.91888e-02,-0.78,-1.02
-9.91872e-02,0.26,0.98
-9.91856e-02,0.98,-1.02
-9.91840e-02,0.22,0.98
-9.91824e-02,-0.66,-1.06
-9.91808e-02,-0.74,0.98
-9.91792e-02,0.22,-1.02
-9.91776e-02,0.94,0.98
-9.91760e-02,0.22,-1.02
-9.91744e-02,-0.62,1.02
-9.91728e-02,-0.78,-1.02
-9.91712e-02,0.22,0.98
-9.91696e-02,0.98,-1.02
-9.91680e-02,0.22,0.98
-9.91664e-02,-0.7,-1.02
-9.91648e-02,-0.78,0.98
-9.91632e-02,0.22,-1.02
-9.91616e-02,0.94,0.98
-9.91600e-02,0.22,-1.02
-9.91584e-02,-0.66,0.98
-9.91568e-02,-0.78,-1.02
-9.91552e-02,0.22,1.02
-9.91536e-02,0.94,-1.02
-9.91520e-02,0.22,1.02
-9.91504e-02,-0.66,-0.98
-9.91488e-02,-0.78,0.98
-9.91472e-02,0.22,-1.02
-9.91456e-02,0.98,0.98
-9.91440e-02,0.26,-1.02
-9.91424e-02,-0.66,0.98
-9.91408e-02,-0.78,-0.98
-9.91392e-02,0.18,1.02
-9.91376e-02,0.94,-0.98
-9.91360e-02,0.26,1.02
-9.91344e-02,-0.66,-0.98
-9.91328e-02,-0.78,0.98
-9.91312e-02,0.18,-1.02
-9.91296e-02,0.9,1.02
-9.91280e-02,0.26,-0.98
-9.91264e-02,-0.66,1.02
-9.91248e-02,-0.78,-0.98
-9.91232e-02,0.18,0.98
-9.91216e-02,0.94,-0.98
-9.91200e-02,0.26,1.02
-9.91184e-02,-0.62,-0.98
-9.91168e-02,-0.78,0.98
-9.91152e-02,0.22,-0.98
-9.91136e-02,0.94,1.02
-9.91120e-02,0.3,-0.98
-9.91104e-02,-0.62,1.02
-9.91088e-02,-0.78,-0.94
-9.91072e-02,0.22,1.02
-9.91056e-02,0.94,-0.94
-9.91040e-02,0.3,1.02
-9.91024e-02,-0.62,-0.94
-9.91008e-02,-0.78,0.98
-9.90992e-02,0.18,-0.98
-9.90976e-02,0.94,0.98
-9.90960e-02,0.3,-0.94
-9.90944e-02,-0.62,1.02
-9.90928e-02,-0.78,-0.94
-9.90912e-02,0.18,0.98
-9.90896e-02,0.94,-0.94
-9.90880e-02,0.26,1.02
-9.90864e-02,-0.62,-0.94
-9.90848e-02,-0.78,1.02
-9.90832e-02,0.18,-0.94
-9.90816e-02,0.94,0.98
-9.90800e-02,0.3,-0.94
-9.90784e-02,-0.62,1.02
-9.90768e-02,-0.78,-0.94
-9.90752e-02,0.18,1.02
-9.90736e-02,0.94,-0.98
-9.90720e-02,0.3,1.02
-9.90704e-02,-0.62,-0.98
-9.90688e-02,-0.82,1.02
-9.90672e-02,0.18,-0.98
-9.90656e-02,0.94,1.02
-9.90640e-02,0.3,-0.98
-9.90624e-02,-0.62,1.02
-9.90608e-02,-0.82,-0.98
-9.90592e-02,0.18,0.98
-9.90576e-02,0.98,-0.94
-9.90560e-02,0.34,1.02
-9.90544e-02,-0.66,-0.94
-9.90528e-02,-0.78,0.98
-9.90512e-02,0.18,-0.98
-9.90496e-02,0.94,1.02
-9.90480e-02,0.3,-0.98
-9.90464e-02,-0.62,1.02
-9.90448e-02,-0.82,-0.98
-9.90432e-02,0.14,1.02
-9.90416e-02,0.94,-0.94
-9.90400e-02,0.34,1.02
-9.90384e-02,-0.62,-0.98
-9.90368e-02,-0.82,0.98
-9.90352e-02,0.18,-0.94
-9.90336e-02,0.98,1.02
-9.90320e-02,0.3,-0.94
-9.90304e-02,-0.62,1.02
-9.90288e-02,-0.86,-0.94
-9.90272e-02,0.18,1.02
-9.90256e-02,0.98,-0.94
-9.90240e-02,0.34,1.02
-9.90224e-02,-0.58,-0.94
-9.90208e-02,-0.82,1.02
-9.90192e-02,0.18,-0.98
-9.90176e-02,0.98,1.02
-9.90160e-02,0.3,-0.98
-9.90144e-02,-0.62,1.02
-9.90128e-02,-0.82,-0.94
-9.90112e-02,0.18,1.02
-9.90096e-02,1.02,-0.94
-9.90080e-02,0.3,1.02
-9.90064e-02,-0.58,-0.98
-9.90048e-02,-0.78,1.02
-9.90032e-02,0.14,-0.98
-9.90016e-02,1.02,0.98
-9.90000e-02,0.26,-0.98
-9.89984e-02,-0.62,1.02
-9.89968e-02,-0.82,-0.98
-9.89952e-02,0.18,1.02
-9.89936e-02,0.98,-1.02
-9.89920e-02,0.34,1.02
-9.89904e-02,-0.58,-0.98
-9.89888e-02,-0.82,1.02
-9.89872e-02,0.18,-0.98
-9.89856e-02,1.02,1.02
-9.89840e-02,0.3,-0.98
-9.89824e-02,-0.62,1.02
-9.89808e-02,-0.82,-1.02
-9.89792e-02,0.14,1.02
-9.89776e-02,0.98,-1.02
-9.89760e-02,0.34,1.02
-9.89744e-02,-0.58,-1.02
-9.89728e-02,-0.82,1.02
-9.89712e-02,0.14,-1.02
-9.89696e-02,0.98,1.02
-9.89680e-02,0.34,-1.02
-9.89664e-02,-0.62,1.02
-9.89648e-02,-0.82,-0.98
-9.89632e-02,0.14,1.02
-9.89616e-02,1.02,-1.02
-9.89600e-02,0.34,1.02
-9.89584e-02,-0.58,-1.02
-9.89568e-02,-0.82,1.02
-9.89552e-02,0.14,-1.02
-9.89536e-02,0.98,1.02
-9.89520e-02,0.3,-1.02
-9.89504e-02,-0.62,1.02
-9.89488e-02,-0.82,-1.02
-9.89472e-02,0.1,1.02
-9.89456e-02,0.98,-1.02
-9.89440e-02,0.3,1.02
-9.89424e-02,-0.58,-1.02
-9.89408e-02,-0.82,1.02
-9.89392e-02,0.14,-1.02
-9.89376e-02,0.98,1.02
-9.89360e-02,0.34,-0.98
-9.89344e-02,-0.58,1.02
-9.89328e-02,-0.86,-0.98
-9.89312e-02,0.14,1.02
-9.89296e-02,0.98,-0.98
-9.89280e-02,0.3,1.02
-9.89264e-02,-0.58,-0.98
-9.89248e-02,-0.78,1.02
-9.89232e-02,0.14,-0.98
-9.89216e-02,0.98,1.02
-9.89200e-02,0.34,-0.98
-9.89184e-02,-0.58,1.02
-9.89168e-02,-0.82,-0.98
-9.89152e-02,0.14,1.02
-9.89136e-02,0.98,-0.98
-9.89120e-02,0.34,1.02
-9.89104e-02,-0.58,-0.98
-9.89088e-02,-0.86,1.02
-9.89072e-02,0.14,-0.98
-9.89056e-02,0.98,1.02
-9.89040e-02,0.34,-0.98
-9.89024e-02,-0.58,1.02
-9.89008e-02,-0.82,-0.98
-9.88992e-02,0.0600001,0.98
-9.88976e-02,0.98,-0.98
-9.88960e-02,0.38,1.02
-9.88944e-02,-0.54,-0.98
-9.88928e-02,-0.78,1.02
-9.88912e-02,0.1,-0.98
-9.88896e-02,0.98,1.02
-9.88880e-02,0.34,-0.98
-9.88864e-02,-0.58,1.02
-9.88848e-02,-0.86,-0.98
-9.88832e-02,0.1,1.02
-9.88816e-02,0.94,-0.98
-9.88800e-02,0.38,1.02
-9.88784e-02,-0.58,-0.94
-9.88768e-02,-0.82,1.02
-9.88752e-02,0.1,-0.94
-9.88736e-02,0.94,0.98
-9.88720e-02,0.38,-0.94
-9.88704e-02,-0.54,0.98
-9.88688e-02,-0.82,-0.94
-9.88672e-02,0.0600001,0.98
-9.88656e-02,0.98,-0.94
-9.88640e-02,0.38,0.98
-9.88624e-02,-0.58,-0.94
-9.88608e-02,-0.82,1.02
-9.88592e-02,0.0600001,-0.94
-9.88576e-02,0.94,1.02
-9.88560e-02,0.38,-0.94
-9.88544e-02,-0.54,0.98
-9.88528e-02,-0.82,-0.94
-9.88512e-02,0.0600001,1.02
-9.88496e-02,0.9,-0.94
-9.88480e-02,0.42,1.02
-9.88464e-02,-0.58,-0.94
-9.88448e-02,-0.86,0.98
-9.88432e-02,0.0600001,-0.94
-9.88416e-02,0.94,0.98
-9.88400e-02,0.42,-0.94
-9.88384e-02,-0.54,1.02
-9.88368e-02,-0.82,-0.94
-9.88352e-02,0.0600001,0.98
-9.88336e-02,0.94,-0.98
-9.88320e-02,0.38,1.02
-9.88304e-02,-0.54,-0.98
-9.88288e-02,-0.86,0.98
-9.88272e-02,0.0600001,-0.98
-9.88256e-02,0.94,0.98
-9.88240e-02,0.42,-0.98
-9.88224e-02,-0.54,0.98
-9.88208e-02,-0.82,-0.98
-9.88192e-02,0.0200001,0.98
-9.88176e-02,0.9,-0.98
-9.88160e-02,0.46,0.98
-9.88144e-02,-0.54,-0.98
-9.88128e-02,-0.82,0.98
-9.88112e-02,0.0600001,-1.02
-9.88096e-02,0.94,0.98
-9.88080e-02,0.42,-0.98
-9.88064e-02,-0.5,0.98
-9.88048e-02,-0.86,-0.98
-9.88032e-02,0.0200001,0.98
-9.88016e-02,0.94,-0.98
-9.88000e-02,0.42,0.98
-9.87984e-02,-0.58,-0.98
-9.87968e-02,-0.82,0.98
-9.87952e-02,0.0200001,-0.98
-9.87936e-02,0.94,0.98
-9.87920e-02,0.46,-1.02
-9.87904e-02,-0.5,0.98
-9.87888e-02,-0.82,-0.98
-9.87872e-02,0.0200001,0.98
-9.87856e-02,0.94,-0.98
-9.87840e-02,0.46,0.98
-9.87824e-02,-0.5,-1.02
-9.87808e-02,-0.82,0.98
-9.87792e-02,0.0200001,-0.98
-9.87776e-02,0.9,0.98
-9.87760e-02,0.42,-0.98
-9.87744e-02,-0.54,1.02
-9.87728e-02,-0.86,-0.98
-9.87712e-02,0.0600001,0.98
-9.87696e-02,0.98,-0.98
-9.87680e-02,0.42,1.02
-9.87664e-02,-0.5,-0.98
-9.87648e-02,-0.82,0.98
-9.87632e-02,0.0600001,-0.98
-9.87616e-02,0.94,1.02
-9.87600e-02,0.46,-0.98
-9.87584e-02,-0.5,1.02
-9.87568e-02,-0.86,-0.98
-9.87552e-02,0.0200001,0.98
-9.87536e-02,0.98,-0.98
-9.87520e-02,0.46,0.98
-9.87504e-02,-0.5,-0.98
-9.87488e-02,-0.9,1.02
-9.87472e-02,0.0200001,-0.98
-9.87456e-02,0.98,0.98
-9.87440e-02,0.42,-1.02
-9.87424e-02,-0.5,1.02
-9.87408e-02,-0.86,-0.98
-9.87392e-02,-0.0199999,0.98
-9.87376e-02,0.94,-0.98
-9.87360e-02,0.46,1.02
-9.87344e-02,-0.54,-0.98
-9.87328e-02,-0.86,1.02
-9.87312e-02,0.0200001,-0.98
-9.87296e-02,0.98,0.98
-9.87280e-02,0.46,-0.98
-9.87264e-02,-0.5,1.02
-9.87248e-02,-0.86,-0.98
-9.87232e-02,0.0200001,1.02
-9.87216e-02,0.98,-0.98
-9.87200e-02,0.42,1.02
-9.87184e-02,-0.5,-0.98
-9.87168e-02,-0.86,0.98
-9.87152e-02,0.0200001,-0.98
-9.87136e-02,1.02,1.02
-9.87120e-02,0.42,-0.98
-9.87104e-02,-0.5,1.02
-9.87088e-02,-0.9,-0.98
-9.87072e-02,0.0200001,1.02
-9.87056e-02,1.02,-0.98
-9.87040e-02,0.46,1.02
-9.87024e-02,-0.5,-0.98
-9.87008e-02,-0.9,1.02
-9.86992e-02,0.0200001,-0.98
-9.86976e-02,0.98,1.02
-9.86960e-02,0.46,-0.98
-9.86944e-02,-0.5,1.02
-9.86928e-02,-0.86,-0.94
-9.86912e-02,0.0200001,1.02
-9.86896e-02,0.98,-0.98
-9.86880e-02,0.42,1.02
-9.86864e-02,-0.5,-0.94
-9.86848e-02,-0.86,1.02
-9.86832e-02,-0.0199999,-0.94
-9.86816e-02,0.94,1.02
-9.86800e-02,0.42,-0.98
-9.86784e-02,-0.46,1.02
-9.86768e-02,-0.86,-0.94
-9.86752e-02,-0.0199999,1.02
-9.86736e-02,1.02,-0.94
-9.86720e-02,0.42,1.02
-9.86704e-02,-0.46,-0.94
-9.86688e-02,-0.86,1.02
-9.86672e-02,-0.0199999,-0.94
-9.86656e-02,0.98,1.02
-9.86640e-02,0.46,-0.94
-9.86624e-02,-0.5,1.02
-9.86608e-02,-0.86,-0.94
-9.86592e-02,-0.0199999,1.02
-9.86576e-02,0.98,-0.94
-9.86560e-02,0.46,1.02
-9.86544e-02,-0.46,-0.94
-9.86528e-02,-0.9,1.02
-9.86512e-02,0.0200001,-0.94
-9.86496e-02,0.98,1.02
-9.86480e-02,0.46,-0.94
-9.86464e-02,-0.46,1.02
-9.86448e-02,-0.86,-0.94
-9.86432e-02,-0.0199999,1.02
-9.86416e-02,0.98,-0.94
-9.86400e-02,0.46,1.02
-9.86384e-02,-0.46,-0.94
-9.86368e-02,-0.86,1.02
-9.86352e-02,-0.0199999,-0.94
-9.86336e-02,0.98,1.02
-9.86320e-02,0.5,-0.94
-9.86304e-02,-0.46,1.02
-9.86288e-02,-0.86,-0.94
-9.86272e-02,-0.0599999,1.02
-9.86256e-02,0.94,-0.94
-9.86240e-02,0.46,1.02
-9.86224e-02,-0.46,-0.94
-9.86208e-02,-0.86,1.02
-9.86192e-02,-0.0599999,-0.98
-9.86176e-02,0.94,0.98
-9.86160e-02,0.46,-0.98
-9.86144e-02,-0.46,0.98
-9.86128e-02,-0.86,-0.94
-9.86112e-02,-0.0599999,0.98
-9.86096e-02,0.94,-0.94
-9.86080e-02,0.46,0.98
-9.86064e-02,-0.46,-0.98
-9.86048e-02,-0.86,0.98
-9.86032e-02,-0.0199999,-0.98
-9.86016e-02,0.94,0.98
-9.86000e-02,0.5,-0.98
-9.85984e-02,-0.46,0.98
-9.85968e-02,-0.86,-0.98
-9.85952e-02,-0.0599999,0.98
-9.85936e-02,0.94,-0.98
-9.85920e-02,0.5,0.98
-9.85904e-02,-0.42,-0.98
-9.85888e-02,-0.86,0.98
-9.85872e-02,-0.0599999,-0.98
-9.85856e-02,0.9,0.98
-9.85840e-02,0.54,-0.98
-9.85824e-02,-0.42,0.98
-9.85808e-02,-0.86,-0.98
-9.85792e-02,-0.0999999,0.98
-9.85776e-02,0.9,-0.98
-9.85760e-02,0.54,0.98
-9.85744e-02,-0.42,-0.98
-9.85728e-02,-0.9,0.98
-9.85712e-02,-0.0999999,-1.02
-9.85696e-02,0.9,0.98
-9.85680e-02,0.5,-0.98
-9.85664e-02,-0.42,0.94
-9.85648e-02,-0.86,-0.98
-9.85632e-02,-0.0599999,0.94
-9.85616e-02,0.9,-0.98
-9.85600e-02,0.54,0.94
-9.85584e-02,-0.42,-1.02
-9.85568e-02,-0.9,0.94
-9.85552e-02,-0.0999999,-1.02
-9.85536e-02,0.9,0.94
-9.85520e-02,0.54,-1.02
-9.85504e-02,-0.42,0.98
-9.85488e-02,-0.9,-1.02
-9.85472e-02,-0.0999999,0.94
-9.85456e-02,0.86,-1.02
-9.85440e-02,0.54,0.94
-9.85424e-02,-0.42,-1.02
-9.85408e-02,-0.86,0.94
-9.85392e-02,-0.0999999,-1.02
-9.85376e-02,0.86,0.94
-9.85360e-02,0.5,-1.02
-9.85344e-02,-0.38,0.94
-9.85328e-02,-0.9,-1.02
-9.85312e-02,-0.0599999,0.94
-9.85296e-02,0.86,-1.02
-9.85280e-02,0.58,0.94
-9.85264e-02,-0.38,-1.02
-9.85248e-02,-0.9,0.94
-9.85232e-02,-0.0999999,-1.02
-9.85216e-02,0.9,0.94
-9.85200e-02,0.58,-1.02
-9.85184e-02,-0.38,0.94
-9.85168e-02,-0.86,-1.02
-9.85152e-02,-0.0999999,0.94
-9.85136e-02,0.9,-1.02
