IEMI testbed/EMI_injection_captures/T0013ALL.CSV

Model,MSO2024B
Firmware Version,1.56

Point Format,Y,,,
Horizontal Units,S,,,
Horizontal Scale,0.1,,,
Sample Interval,8e-06,,,
Filter Frequency,2e+08,,,
Record Length,125000,,,
Gating,0.0% to 100.0%,,0.0% to 100.0%,
Probe Attenuation,10,,10,
Vertical Units,V,,V,
Vertical Offset,0,,0,
Vertical Scale,2,,2,
Label,,,,
TIME,CH1,CH1 Peak Detect,CH2,CH2 Peak Detect
-3.39200e-01,0.52,0.6,0.12,0.2
-3.39192e-01,0.52,0.44,0.12,0.04
-3.39184e-01,0.52,0.6,0.12,0.2
-3.39176e-01,0.52,0.44,0.12,0.04
-3.39168e-01,0.52,0.6,0.12,0.2
-3.39160e-01,0.52,0.44,0.12,0.04
-3.39152e-01,0.52,0.6,0.12,0.2
-3.39144e-01,0.52,0.44,0.12,0.04
-3.39136e-01,0.52,0.6,0.12,0.2
-3.39128e-01,0.52,0.44,0.12,0.04
-3.39120e-01,0.52,0.6,0.12,0.2
-3.39112e-01,0.52,0.44,0.12,0.04
-3.39104e-01,0.52,0.6,0.12,0.2
-3.39096e-01,0.52,0.44,0.12,0.04
-3.39088e-01,0.52,0.6,0.12,0.2
-3.39080e-01,0.52,0.44,0.12,0.04
-3.39072e-01,0.52,0.6,0.12,0.2
-3.39064e-01,0.52,0.44,0.12,0.04
-3.39056e-01,0.52,0.6,0.12,0.2
-3.39048e-01,0.52,0.44,0.12,0.04
-3.39040e-01,0.52,0.6,0.12,0.2
-3.39032e-01,0.52,0.44,0.12,0.04
-3.39024e-01,0.52,0.6,0.12,0.2
-3.39016e-01,0.52,0.44,0.12,0.04
-3.39008e-01,0.52,0.6,0.12,0.2
-3.39000e-01,0.52,0.44,0.12,0.04
-3.38992e-01,0.52,0.6,0.12,0.2
-3.38984e-01,0.52,0.44,0.12,0.04
-3.38976e-01,0.52,0.6,0.12,0.2
-3.38968e-01,0.52,0.44,0.12,0.04
-3.38960e-01,0.52,0.6,0.12,0.2
-3.38952e-01,0.52,0.44,0.12,0.04
-3.38944e-01,0.52,0.6,0.12,0.2
-3.38936e-01,0.52,0.44,0.12,0.04
-3.38928e-01,0.52,0.6,0.12,0.2
-3.38920e-01,0.52,0.44,0.12,0.04
-3.38912e-01,0.52,0.6,0.12,0.2
-3.38904e-01,0.52,0.44,0.12,0.04
-3.38896e-01,0.52,0.6,0.12,0.2
-3.38888e-01,0.52,0.44,0.12,0.04
-3.38880e-01,0.52,0.6,0.12,0.2
-3.38872e-01,0.52,0.44,0.12,0.04
-3.38864e-01,0.52,0.6,0.12,0.2
-3.38856e-01,0.52,0.44,0.12,0.04
-3.38848e-01,0.52,0.6,0.12,0.2
-3.38840e-01,0.52,0.44,0.12,0.04
-3.38832e-01,0.52,0.6,0.12,0.2
-3.38824e-01,0.52,0.44,0.12,0.04
-3.38816e-01,0.52,0.6,0.12,0.2
-3.38808e-01,0.52,0.44,0.12,0.04
-3.38800e-01,0.52,0.6,0.12,0.2
-3.38792e-01,0.52,0.44,0.12,0.04
-3.38784e-01,0.52,0.6,0.12,0.2
-3.38776e-01,0.52,0.44,0.12,0.04
-3.38768e-01,0.52,0.6,0.12,0.2
-3.38760e-01,0.52,0.44,0.12,0.04
-3.38752e-01,0.52,0.6,0.2,0.2
-3.38744e-01,0.52,0.44,0.12,0.04
-3.38736e-01,0.44,0.6,0.12,0.2
-3.38728e-01,0.52,0.44,0.12,0.04
-3.38720e-01,0.52,0.6,0.12,0.2
-3.38712e-01,0.52,0.44,0.12,0.04
-3.38704e-01,0.52,0.6,0.12,0.2
-3.38696e-01,0.52,0.44,0.12,0.04
-3.38688e-01,0.52,0.6,0.12,0.2
-3.38680e-01,0.52,0.44,0.12,0.04
-3.38672e-01,0.52,0.6,0.12,0.2
-3.38664e-01,0.52,0.44,0.12,0.04
-3.38656e-01,0.52,0.6,0.12,0.2
-3.38648e-01,0.52,0.44,0.12,0.04
-3.38640e-01,0.52,0.6,0.12,0.2
-3.38632e-01,0.52,0.44,0.12,0.04
-3.38624e-01,0.52,0.6,0.12,0.2
-3.38616e-01,0.52,0.44,0.2,0.04
-3.38608e-01,0.52,0.6,0.12,0.2
-3.38600e-01,0.44,0.44,0.12,0.04
-3.38592e-01,0.52,0.6,0.12,0.2
-3.38584e-01,0.52,0.44,0.12,0.04
-3.38576e-01,0.52,0.6,0.12,0.2
-3.38568e-01,0.52,0.44,0.12,0.04
-3.38560e-01,0.52,0.6,0.12,0.2
-3.38552e-01,0.52,0.44,0.12,0.04
-3.38544e-01,0.52,0.6,0.12,0.2
-3.38536e-01,0.52,0.44,0.2,0.04
-3.38528e-01,0.52,0.6,0.12,0.2
-3.38520e-01,0.52,0.44,0.12,0.04
-3.38512e-01,0.52,0.6,0.12,0.2
-3.38504e-01,0.52,0.44,0.12,0.04
-3.38496e-01,0.52,0.6,0.04,0.2
-3.38488e-01,0.52,0.44,0.12,0.04
-3.38480e-01,0.52,0.6,0.12,0.2
-3.38472e-01,0.52,0.44,0.12,0.04
-3.38464e-01,0.52,0.6,0.12,0.2
-3.38456e-01,0.52,0.44,0.12,0.04
-3.38448e-01,0.6,0.6,0.12,0.2
-3.38440e-01,0.52,0.44,0.12,0.04
-3.38432e-01,0.6,0.6,0.12,0.2
-3.38424e-01,0.52,0.44,0.12,0.04
-3.38416e-01,0.52,0.6,0.12,0.2
-3.38408e-01,0.52,0.44,0.12,0.04
-3.38400e-01,0.52,0.6,0.12,0.2
-3.38392e-01,0.52,0.44,0.12,0.04
-3.38384e-01,0.44,0.6,0.12,0.2
-3.38376e-01,0.52,0.44,0.12,0.04
-3.38368e-01,0.52,0.6,0.12,0.2
-3.38360e-01,0.52,0.44,0.12,0.04
-3.38352e-01,0.52,0.6,0.04,0.2
-3.38344e-01,0.52,0.44,0.12,0.04
-3.38336e-01,0.52,0.6,0.12,0.2
-3.38328e-01,0.52,0.44,0.12,0.04
-3.38320e-01,0.52,0.6,0.12,0.2
-3.38312e-01,0.52,0.44,0.12,0.04
-3.38304e-01,0.52,0.6,0.12,0.2
-3.38296e-01,0.52,0.44,0.2,0.04
-3.38288e-01,0.44,0.6,0.12,0.2
-3.38280e-01,0.52,0.44,0.12,0.04
-3.38272e-01,0.52,0.6,0.2,0.2
-3.38264e-01,0.52,0.44,0.12,0.04
-3.38256e-01,0.52,0.6,0.12,0.2
-3.38248e-01,0.52,0.44,0.12,0.04
-3.38240e-01,0.52,0.6,0.12,0.2
-3.38232e-01,0.44,0.44,0.12,0.04
-3.38224e-01,0.52,0.6,0.12,0.2
-3.38216e-01,0.52,0.44,0.12,0.04
-3.38208e-01,0.52,0.6,0.12,0.2
-3.38200e-01,0.52,0.44,0.12,0.04
-3.38192e-01,0.52,0.6,0.12,0.2
-3.38184e-01,0.52,0.44,0.12,0.04
-3.38176e-01,0.52,0.6,0.12,0.2
-3.38168e-01,0.52,0.44,0.12,0.04
-3.38160e-01,0.52,0.6,0.12,0.2
-3.38152e-01,0.52,0.44,0.12,0.04
-3.38144e-01,0.52,0.6,0.12,0.2
-3.38136e-01,0.52,0.44,0.12,0.04
-3.38128e-01,0.52,0.6,0.12,0.2
-3.38120e-01,0.44,0.44,0.12,0.04
-3.38112e-01,0.52,0.6,0.12,0.2
-3.38104e-01,0.52,0.44,0.12,0.04
-3.38096e-01,0.52,0.6,0.12,0.2
-3.38088e-01,0.52,0.44,0.12,0.04
-3.38080e-01,0.52,0.6,0.12,0.2
-3.38072e-01,0.52,0.44,0.12,0.04
-3.38064e-01,0.52,0.6,0.12,0.2
-3.38056e-01,0.52,0.44,0.2,0.04
-3.38048e-01,0.52,0.6,0.12,0.2
-3.38040e-01,0.52,0.44,0.12,0.04
-3.38032e-01,0.52,0.6,0.12,0.2
-3.38024e-01,0.52,0.44,0.12,0.04
-3.38016e-01,0.52,0.6,0.12,0.2
-3.38008e-01,0.52,0.44,0.12,0.04
-3.38000e-01,0.52,0.6,0.12,0.2
-3.37992e-01,0.52,0.44,0.12,0.04
-3.37984e-01,0.52,0.6,0.12,0.2
-3.37976e-01,0.52,0.44,0.12,0.04
-3.37968e-01,0.52,0.6,0.12,0.2
-3.37960e-01,0.52,0.44,0.12,0.04
-3.37952e-01,0.52,0.6,0.12,0.2
-3.37944e-01,0.52,0.44,0.12,0.04
-3.37936e-01,0.52,0.6,0.12,0.2
-3.37928e-01,0.52,0.44,0.12,0.04
-3.37920e-01,0.52,0.6,0.12,0.2
-3.37912e-01,0.52,0.44,0.12,0.04
-3.37904e-01,0.52,0.6,0.12,0.2
-3.37896e-01,0.52,0.44,0.12,0.04
-3.37888e-01,0.52,0.6,0.12,0.2
-3.37880e-01,0.52,0.44,0.12,0.04
-3.37872e-01,0.52,0.6,0.12,0.2
-3.37864e-01,0.52,0.44,0.12,0.04
-3.37856e-01,0.52,0.6,0.12,0.2
-3.37848e-01,0.52,0.44,0.2,0.04
-3.37840e-01,0.52,0.68,0.12,0.2
-3.37832e-01,0.52,0.44,0.12,0.04
-3.37824e-01,0.52,0.6,0.12,0.2
-3.37816e-01,0.52,0.44,0.12,0.04
-3.37808e-01,0.52,0.6,0.12,0.2
-3.37800e-01,0.52,0.44,0.12,0.04
-3.37792e-01,0.52,0.6,0.12,0.2
-3.37784e-01,0.52,0.44,0.12,0.04
-3.37776e-01,0.52,0.6,0.12,0.2
-3.37768e-01,0.52,0.44,0.12,0.04
-3.37760e-01,0.44,0.6,0.12,0.2
-3.37752e-01,0.52,0.44,0.12,0.04
-3.37744e-01,0.52,0.6,0.12,0.2
-3.37736e-01,0.52,0.44,0.12,0.04
-3.37728e-01,0.52,0.6,0.12,0.2
-3.37720e-01,0.52,0.44,0.12,0.04
-3.37712e-01,0.52,0.6,0.12,0.2
-3.37704e-01,0.52,0.44,0.12,0.04
-3.37696e-01,0.52,0.6,0.12,0.2
-3.37688e-01,0.52,0.44,0.12,0.04
-3.37680e-01,0.52,0.6,0.12,0.2
-3.37672e-01,0.52,0.44,0.12,0.04
-3.37664e-01,0.52,0.6,0.12,0.2
-3.37656e-01,0.52,0.44,0.12,0.04
-3.37648e-01,0.52,0.6,0.12,0.2
-3.37640e-01,0.52,0.44,0.12,0.04
-3.37632e-01,0.52,0.6,0.12,0.2
-3.37624e-01,0.52,0.44,0.12,0.04
-3.37616e-01,0.52,0.6,0.12,0.2
-3.37608e-01,0.52,0.44,0.2,0.04
-3.37600e-01,0.52,0.6,0.12,0.2
-3.37592e-01,0.52,0.44,0.12,0.04
-3.37584e-01,0.52,0.6,0.12,0.2
-3.37576e-01,0.52,0.44,0.12,0.04
-3.37568e-01,0.52,0.6,0.12,0.2
-3.37560e-01,0.52,0.44,0.12,0.04
-3.37552e-01,0.52,0.6,0.12,0.2
-3.37544e-01,0.52,0.44,0.12,0.04
-3.37536e-01,0.52,0.6,0.2,0.2
-3.37528e-01,0.52,0.44,0.12,0.04
-3.37520e-01,0.52,0.6,0.12,0.2
-3.37512e-01,0.52,0.44,0.12,0.04
-3.37504e-01,0.52,0.6,0.12,0.2
-3.37496e-01,0.52,0.44,0.12,0.04
-3.37488e-01,0.52,0.6,0.12,0.2
-3.37480e-01,0.52,0.44,0.12,0.04
-3.37472e-01,0.52,0.6,0.12,0.2
-3.37464e-01,0.52,0.44,0.12,0.04
-3.37456e-01,0.52,0.6,0.12,0.2
-3.37448e-01,0.52,0.44,0.12,0.04
-3.37440e-01,0.52,0.6,0.2,0.2
-3.37432e-01,0.52,0.44,0.12,0.04
-3.37424e-01,0.52,0.6,0.12,0.2
-3.37416e-01,0.52,0.44,0.12,0.04
-3.37408e-01,0.52,0.6,0.2,0.2
-3.37400e-01,0.52,0.44,0.12,0.04
-3.37392e-01,0.52,0.6,0.2,0.2
-3.37384e-01,0.52,0.44,0.12,0.04
-3.37376e-01,0.52,0.6,0.2,0.2
-3.37368e-01,0.52,0.44,0.12,0.04
-3.37360e-01,0.52,0.6,0.12,0.2
-3.37352e-01,0.52,0.44,0.12,0.04
-3.37344e-01,0.52,0.6,0.12,0.2
-3.37336e-01,0.52,0.44,0.12,0.04
-3.37328e-01,0.52,0.6,0.12,0.2
-3.37320e-01,0.52,0.44,0.12,0.04
-3.37312e-01,0.52,0.6,0.12,0.2
-3.37304e-01,0.52,0.44,0.12,0.04
-3.37296e-01,0.52,0.6,0.12,0.2
-3.37288e-01,0.52,0.44,0.12,0.04
-3.37280e-01,0.52,0.6,0.12,0.2
-3.37272e-01,0.52,0.44,0.12,0.04
-3.37264e-01,0.52,0.6,0.12,0.2
-3.37256e-01,0.52,0.44,0.12,0.04
-3.37248e-01,0.52,0.6,0.12,0.2
-3.37240e-01,0.52,0.44,0.12,0.04
-3.37232e-01,0.52,0.6,0.2,0.2
-3.37224e-01,0.52,0.44,0.2,0.04
-3.37216e-01,0.6,0.6,0.12,0.2
-3.37208e-01,0.52,0.44,0.12,0.04
-3.37200e-01,0.52,0.6,0.12,0.2
-3.37192e-01,0.52,0.44,0.12,0.04
-3.37184e-01,0.52,0.6,0.12,0.2
-3.37176e-01,0.52,0.44,0.12,0.04
-3.37168e-01,0.52,0.6,0.2,0.2
-3.37160e-01,0.52,0.44,0.12,0.04
-3.37152e-01,0.52,0.6,0.12,0.2
-3.37144e-01,0.52,0.44,0.12,0.04
-3.37136e-01,0.52,0.6,0.12,0.2
-3.37128e-01,0.52,0.44,0.12,0.04
-3.37120e-01,0.52,0.6,0.12,0.2
-3.37112e-01,0.52,0.44,0.12,0.04
-3.37104e-01,0.52,0.6,0.12,0.2
-3.37096e-01,0.52,0.44,0.12,0.04
-3.37088e-01,0.52,0.6,0.12,0.2
-3.37080e-01,0.52,0.44,0.12,0.04
-3.37072e-01,0.52,0.6,0.12,0.2
-3.37064e-01,0.44,0.44,0.12,0.04
-3.37056e-01,0.52,0.6,0.12,0.2
-3.37048e-01,0.52,0.44,0.12,0.04
-3.37040e-01,0.52,0.6,0.12,0.2
-3.37032e-01,0.52,0.44,0.12,0.04
-3.37024e-01,0.52,0.6,0.2,0.2
-3.37016e-01,0.52,0.44,0.12,0.04
-3.37008e-01,0.52,0.6,0.12,0.2
-3.37000e-01,0.52,0.44,0.12,0.04
-3.36992e-01,0.52,0.6,0.12,0.2
-3.36984e-01,0.52,0.44,0.12,0.04
-3.36976e-01,0.52,0.6,0.12,0.2
-3.36968e-01,0.44,0.44,0.12,0.04
-3.36960e-01,0.52,0.6,0.12,0.2
-3.36952e-01,0.52,0.44,0.12,0.04
-3.36944e-01,0.52,0.6,0.12,0.2
-3.36936e-01,0.52,0.44,0.12,0.04
-3.36928e-01,0.52,0.6,0.12,0.2
-3.36920e-01,0.52,0.44,0.12,0.04
-3.36912e-01,0.52,0.6,0.12,0.2
-3.36904e-01,0.52,0.44,0.12,0.04
-3.36896e-01,0.52,0.6,0.12,0.2
-3.36888e-01,0.52,0.44,0.12,0.04
-3.36880e-01,0.52,0.6,0.12,0.2
-3.36872e-01,0.52,0.44,0.12,0.04
-3.36864e-01,0.52,0.6,0.12,0.2
-3.36856e-01,0.52,0.44,0.12,0.04
-3.36848e-01,0.52,0.6,0.12,0.2
-3.36840e-01,0.52,0.44,0.12,0.04
-3.36832e-01,0.52,0.6,0.12,0.2
-3.36824e-01,0.52,0.44,0.12,0.04
-3.36816e-01,0.52,0.6,0.12,0.2
-3.36808e-01,0.52,0.44,0.12,0.04
-3.36800e-01,0.52,0.6,0.12,0.2
-3.36792e-01,0.52,0.44,0.12,0.04
-3.36784e-01,0.52,0.6,0.12,0.2
-3.36776e-01,0.52,0.44,0.12,0.04
-3.36768e-01,0.52,0.6,0.12,0.2
-3.36760e-01,0.44,0.44,0.12,0.04
-3.36752e-01,0.52,0.6,0.12,0.2
-3.36744e-01,0.52,0.44,0.12,0.04
-3.36736e-01,0.52,0.6,0.12,0.2
-3.36728e-01,0.52,0.44,0.12,0.04
-3.36720e-01,0.52,0.6,0.12,0.2
-3.36712e-01,0.52,0.44,0.12,0.04
-3.36704e-01,0.44,0.6,0.12,0.2
-3.36696e-01,0.52,0.44,0.12,0.04
-3.36688e-01,0.52,0.6,0.12,0.2
-3.36680e-01,0.44,0.44,0.12,0.04
-3.36672e-01,0.52,0.6,0.12,0.2
-3.36664e-01,0.52,0.44,0.12,0.04
-3.36656e-01,0.52,0.6,0.12,0.2
-3.36648e-01,0.52,0.44,0.12,0.04
-3.36640e-01,0.52,0.6,0.12,0.2
-3.36632e-01,0.52,0.44,0.12,0.04
-3.36624e-01,0.52,0.6,0.12,0.2
-3.36616e-01,0.52,0.44,0.12,0.04
-3.36608e-01,0.52,0.6,0.12,0.2
-3.36600e-01,0.52,0.44,0.12,0.04
-3.36592e-01,0.52,0.6,0.12,0.2
-3.36584e-01,0.52,0.44,0.12,0.04
-3.36576e-01,0.52,0.6,0.12,0.2
-3.36568e-01,0.52,0.44,0.12,0.04
-3.36560e-01,0.52,0.6,0.2,0.2
-3.36552e-01,0.52,0.44,0.12,0.04
-3.36544e-01,0.52,0.6,0.12,0.2
-3.36536e-01,0.52,0.44,0.12,0.04
-3.36528e-01,0.52,0.6,0.12,0.2
-3.36520e-01,0.52,0.44,0.2,0.04
-3.36512e-01,0.52,0.6,0.12,0.2
-3.36504e-01,0.52,0.44,0.12,0.04
-3.36496e-01,0.52,0.6,0.12,0.2
-3.36488e-01,0.52,0.44,0.2,0.04
-3.36480e-01,0.52,0.6,0.12,0.2
-3.36472e-01,0.52,0.44,0.12,0.04
-3.36464e-01,0.52,0.6,0.12,0.2
-3.36456e-01,0.52,0.44,0.12,0.04
-3.36448e-01,0.52,0.6,0.12,0.2
-3.36440e-01,0.52,0.44,0.12,0.04
-3.36432e-01,0.52,0.6,0.12,0.2
-3.36424e-01,0.52,0.44,0.12,0.04
-3.36416e-01,0.52,0.6,0.12,0.2
-3.36408e-01,0.52,0.44,0.12,0.04
-3.36400e-01,0.52,0.6,0.12,0.2
-3.36392e-01,0.52,0.44,0.12,0.04
-3.36384e-01,0.52,0.6,0.2,0.2
-3.36376e-01,0.52,0.44,0.12,0.04
-3.36368e-01,0.52,0.6,0.12,0.2
-3.36360e-01,0.52,0.44,0.2,0.04
-3.36352e-01,0.52,0.6,0.12,0.2
-3.36344e-01,0.52,0.44,0.12,0.04
-3.36336e-01,0.52,0.6,0.12,0.2
-3.36328e-01,0.52,0.44,0.12,0.04
-3.36320e-01,0.52,0.6,0.12,0.2
-3.36312e-01,0.52,0.44,0.12,0.04
-3.36304e-01,0.52,0.6,0.12,0.2
-3.36296e-01,0.52,0.44,0.12,0.04
-3.36288e-01,0.52,0.6,0.12,0.2
-3.36280e-01,0.52,0.44,0.12,0.04
-3.36272e-01,0.52,0.6,0.12,0.2
-3.36264e-01,0.52,0.44,0.12,0.04
-3.36256e-01,0.52,0.6,0.2,0.2
-3.36248e-01,0.52,0.44,0.12,0.04
-3.36240e-01,0.52,0.6,0.12,0.2
-3.36232e-01,0.52,0.44,0.12,0.04
-3.36224e-01,0.52,0.6,0.12,0.2
-3.36216e-01,0.44,0.44,0.12,0.04
-3.36208e-01,0.52,0.6,0.12,0.2
-3.36200e-01,0.52,0.44,0.12,0.04
-3.36192e-01,0.52,0.6,0.2,0.2
-3.36184e-01,0.52,0.44,0.12,0.04
-3.36176e-01,0.52,0.6,0.12,0.2
-3.36168e-01,0.52,0.44,0.12,0.04
-3.36160e-01,0.52,0.6,0.12,0.2
-3.36152e-01,0.52,0.44,0.12,0.04
-3.36144e-01,0.52,0.6,0.12,0.2
-3.36136e-01,0.52,0.44,0.2,0.04
-3.36128e-01,0.52,0.6,0.12,0.2
-3.36120e-01,0.52,0.44,0.2,0.04
-3.36112e-01,0.52,0.6,0.12,0.2
-3.36104e-01,0.52,0.44,0.12,0.04
-3.36096e-01,0.44,0.6,0.12,0.2
-3.36088e-01,0.52,0.44,0.12,0.04
-3.36080e-01,0.44,0.6,0.12,0.2
-3.36072e-01,0.44,0.44,0.12,0.04
-3.36064e-01,0.52,0.6,0.12,0.2
-3.36056e-01,0.52,0.44,0.12,0.04
-3.36048e-01,0.52,0.6,0.12,0.2
-3.36040e-01,0.52,0.44,0.12,0.04
-3.36032e-01,0.52,0.6,0.12,0.2
-3.36024e-01,0.52,0.44,0.2,0.04
-3.36016e-01,0.52,0.6,0.12,0.2
-3.36008e-01,0.52,0.44,0.12,0.04
-3.36000e-01,0.52,0.6,0.12,0.2
-3.35992e-01,0.44,0.44,0.12,0.04
-3.35984e-01,0.52,0.6,0.12,0.2
-3.35976e-01,0.52,0.44,0.12,0.04
-3.35968e-01,0.44,0.6,0.12,0.2
-3.35960e-01,0.52,0.44,0.12,0.04
-3.35952e-01,0.52,0.6,0.12,0.2
-3.35944e-01,0.52,0.44,0.12,0.04
-3.35936e-01,0.52,0.6,0.12,0.2
-3.35928e-01,0.52,0.44,0.12,0.04
-3.35920e-01,0.52,0.6,0.12,0.2
-3.35912e-01,0.52,0.44,0.12,0.04
-3.35904e-01,0.52,0.6,0.12,0.2
-3.35896e-01,0.52,0.44,0.12,0.04
-3.35888e-01,0.52,0.6,0.12,0.2
-3.35880e-01,0.52,0.44,0.12,0.04
-3.35872e-01,0.52,0.6,0.12,0.2
-3.35864e-01,0.52,0.44,0.12,0.04
-3.35856e-01,0.52,0.6,0.12,0.2
-3.35848e-01,0.6,0.44,0.12,0.04
-3.35840e-01,0.52,0.6,0.12,0.2
-3.35832e-01,0.52,0.44,0.12,0.04
-3.35824e-01,0.52,0.6,0.12,0.2
-3.35816e-01,0.52,0.44,0.12,0.04
-3.35808e-01,0.52,0.6,0.12,0.2
-3.35800e-01,0.52,0.44,0.12,0.04
-3.35792e-01,0.52,0.6,0.12,0.2
-3.35784e-01,0.52,0.44,0.12,0.04
-3.35776e-01,0.52,0.6,0.12,0.2
-3.35768e-01,0.52,0.44,0.12,0.04
-3.35760e-01,0.52,0.6,0.12,0.2
-3.35752e-01,0.52,0.44,0.12,0.04
-3.35744e-01,0.52,0.6,0.12,0.2
-3.35736e-01,0.52,0.44,0.2,0.04
-3.35728e-01,0.52,0.6,0.12,0.2
-3.35720e-01,0.44,0.44,0.12,0.04
-3.35712e-01,0.52,0.6,0.12,0.2
-3.35704e-01,0.52,0.44,0.2,0.04
-3.35696e-01,0.52,0.6,0.12,0.2
-3.35688e-01,0.44,0.44,0.12,0.04
-3.35680e-01,0.52,0.6,0.12,0.2
-3.35672e-01,0.52,0.44,0.12,0.04
-3.35664e-01,0.44,0.6,0.12,0.2
-3.35656e-01,0.52,0.44,0.12,0.04
-3.35648e-01,0.52,0.6,0.2,0.2
-3.35640e-01,0.44,0.44,0.12,0.04
-3.35632e-01,0.52,0.6,0.12,0.2
-3.35624e-01,0.52,0.44,0.12,0.04
-3.35616e-01,0.52,0.6,0.12,0.2
-3.35608e-01,0.52,0.44,0.12,0.04
-3.35600e-01,0.52,0.6,0.12,0.2
-3.35592e-01,0.44,0.44,0.12,0.04
-3.35584e-01,0.52,0.6,0.12,0.2
-3.35576e-01,0.52,0.44,0.12,0.04
-3.35568e-01,0.52,0.6,0.12,0.2
-3.35560e-01,0.52,0.44,0.12,0.04
-3.35552e-01,0.52,0.68,0.12,0.2
-3.35544e-01,0.52,0.44,0.12,0.04
-3.35536e-01,0.52,0.6,0.12,0.2
-3.35528e-01,0.52,0.44,0.12,0.04
-3.35520e-01,0.52,0.6,0.12,0.2
-3.35512e-01,0.52,0.44,0.12,0.04
-3.35504e-01,0.52,0.6,0.12,0.2
-3.35496e-01,0.44,0.44,0.12,0.04
-3.35488e-01,0.52,0.6,0.12,0.2
-3.35480e-01,0.52,0.44,0.2,0.04
-3.35472e-01,0.52,0.6,0.2,0.2
-3.35464e-01,0.44,0.44,0.12,0.04
-3.35456e-01,0.52,0.6,0.12,0.2
-3.35448e-01,0.52,0.44,0.12,0.04
-3.35440e-01,0.52,0.6,0.12,0.2
-3.35432e-01,0.44,0.44,0.12,0.04
-3.35424e-01,0.44,0.6,0.12,0.2
-3.35416e-01,0.52,0.44,0.2,0.04
-3.35408e-01,0.52,0.6,0.12,0.2
-3.35400e-01,0.52,0.44,0.12,0.04
-3.35392e-01,0.52,0.6,0.12,0.2
-3.35384e-01,0.52,0.44,0.12,0.04
-3.35376e-01,0.52,0.6,0.12,0.2
-3.35368e-01,0.52,0.44,0.12,0.04
-3.35360e-01,0.52,0.6,0.12,0.2
-3.35352e-01,0.44,0.44,0.2,0.04
-3.35344e-01,0.52,0.6,0.12,0.2
-3.35336e-01,0.52,0.44,0.12,0.04
-3.35328e-01,0.52,0.6,0.12,0.2
-3.35320e-01,0.52,0.44,0.2,0.04
-3.35312e-01,0.52,0.6,0.12,0.2
-3.35304e-01,0.52,0.44,0.12,0.04
-3.35296e-01,0.52,0.6,0.12,0.2
-3.35288e-01,0.52,0.44,0.12,0.04
-3.35280e-01,0.52,0.6,0.12,0.2
-3.35272e-01,0.52,0.44,0.12,0.04
-3.35264e-01,0.52,0.6,0.12,0.2
-3.35256e-01,0.52,0.44,0.12,0.04
-3.35248e-01,0.52,0.6,0.12,0.2
-3.35240e-01,0.6,0.44,0.2,0.04
-3.35232e-01,0.52,0.6,0.12,0.2
-3.35224e-01,0.52,0.44,0.12,0.04
-3.35216e-01,0.44,0.6,0.12,0.2
-3.35208e-01,0.52,0.44,0.12,0.04
-3.35200e-01,0.52,0.6,0.12,0.2
-3.35192e-01,0.52,0.44,0.12,0.04
-3.35184e-01,0.52,0.6,0.12,0.2
-3.35176e-01,0.52,0.44,0.12,0.04
-3.35168e-01,0.52,0.68,0.12,0.2
-3.35160e-01,0.52,0.44,0.12,0.04
-3.35152e-01,0.52,0.6,0.12,0.2
-3.35144e-01,0.52,0.44,0.12,0.04
-3.35136e-01,0.52,0.6,0.12,0.2
-3.35128e-01,0.52,0.44,0.12,0.04
-3.35120e-01,0.52,0.6,0.12,0.2
-3.35112e-01,0.52,0.44,0.12,0.04
-3.35104e-01,0.52,0.6,0.12,0.2
-3.35096e-01,0.52,0.44,0.12,0.04
-3.35088e-01,0.52,0.6,0.12,0.2
-3.35080e-01,0.52,0.44,0.2,0.04
-3.35072e-01,0.52,0.6,0.12,0.2
-3.35064e-01,0.52,0.44,0.12,0.04
-3.35056e-01,0.52,0.6,0.2,0.2
-3.35048e-01,0.52,0.44,0.12,0.04
-3.35040e-01,0.52,0.6,0.12,0.2
-3.35032e-01,0.52,0.44,0.12,0.04
-3.35024e-01,0.52,0.6,0.12,0.2
-3.35016e-01,0.52,0.44,0.12,0.04
-3.35008e-01,0.52,0.6,0.12,0.2
-3.35000e-01,0.52,0.44,0.12,0.04
-3.34992e-01,0.52,0.6,0.12,0.2
-3.34984e-01,0.52,0.44,0.12,0.04
-3.34976e-01,0.52,0.6,0.12,0.2
-3.34968e-01,0.52,0.44,0.12,0.04
-3.34960e-01,0.52,0.6,0.12,0.2
-3.34952e-01,0.52,0.44,0.12,0.04
-3.34944e-01,0.52,0.6,0.12,0.2
-3.34936e-01,0.52,0.44,0.12,0.04
-3.34928e-01,0.52,0.6,0.12,0.2
-3.34920e-01,0.52,0.44,0.12,0.04
-3.34912e-01,0.52,0.6,0.12,0.2
-3.34904e-01,0.52,0.44,0.12,0.04
-3.34896e-01,-2.76,0.6,0.12,0.2
-3.34888e-01,-2.68,-3.8,0.12,-0.36
-3.34880e-01,-2.68,0.6,0.12,0.2
-3.34872e-01,-2.68,-2.84,0.12,0.04
-3.34864e-01,-2.68,-2.6,0.12,0.2
-3.34856e-01,-2.68,-2.76,0.12,0.04
-3.34848e-01,-2.68,-2.6,0.12,0.2
-3.34840e-01,-2.68,-2.76,0.12,0.04
-3.34832e-01,-2.68,-2.6,0.12,0.2
-3.34824e-01,-2.68,-2.76,0.2,0.04
-3.34816e-01,-2.68,-2.6,-3,0.2
-3.34808e-01,-2.68,-2.76,-3,-3.96
-3.34800e-01,-2.6,-2.44,-3,0.2
-3.34792e-01,-2.68,-2.76,-3,-3.16
-3.34784e-01,-2.6,-2.52,-3,-2.92
-3.34776e-01,-2.6,-2.68,-3,-3.16
-3.34768e-01,-2.68,-2.52,-3,-2.92
-3.34760e-01,-2.6,-2.68,-3,-3.08
-3.34752e-01,-2.6,-2.52,-3,-2.92
-3.34744e-01,-2.6,-2.68,-2.92,-3.08
-3.34736e-01,-2.6,-2.52,-3,-2.92
-3.34728e-01,0.68,-2.68,-2.92,-3.08
-3.34720e-01,0.6,-2.52,-2.92,-2.92
-3.34712e-01,0.6,-2.68,-3,-3.08
-3.34704e-01,0.6,0.76,-2.92,-2.84
-3.34696e-01,0.6,0.52,-2.92,-3.08
-3.34688e-01,0.6,0.68,-2.92,-2.92
-3.34680e-01,0.52,0.52,-2.92,-3.08
-3.34672e-01,0.6,0.68,-2.92,-2.84
-3.34664e-01,0.52,0.52,-2.92,-3.08
-3.34656e-01,0.6,0.68,0.2,-2.84
-3.34648e-01,0.6,0.52,0.2,-3.08
-3.34640e-01,0.6,0.84,0.2,0.28
-3.34632e-01,0.52,0.52,0.2,0.12
-3.34624e-01,0.6,0.68,0.2,0.28
-3.34616e-01,0.52,0.44,0.12,0.12
-3.34608e-01,0.6,0.68,0.2,0.28
-3.34600e-01,0.52,0.44,0.2,0.12
-3.34592e-01,0.52,0.68,0.12,0.2
-3.34584e-01,0.52,0.44,0.12,0.04
-3.34576e-01,0.52,0.68,-3,0.28
-3.34568e-01,0.52,0.0400002,-3,-3.96
-3.34560e-01,0.52,0.68,-3,0.2
-3.34552e-01,0.44,0.44,-2.92,-3.08
-3.34544e-01,0.52,0.68,-2.92,-2.92
-3.34536e-01,0.52,0.44,-3,-3.08
-3.34528e-01,0.52,0.6,-3,-2.92
-3.34520e-01,0.52,0.44,-2.92,-3.08
-3.34512e-01,0.52,0.6,-3,-2.92
-3.34504e-01,0.52,0.44,-2.92,-3.08
-3.34496e-01,0.52,0.6,0.12,-2.92
-3.34488e-01,0.52,0.44,0.2,-3.08
-3.34480e-01,0.52,0.76,0.2,0.28
-3.34472e-01,0.52,0.44,0.2,0.12
-3.34464e-01,0.52,0.6,0.2,0.28
-3.34456e-01,0.52,0.44,0.12,0.12
-3.34448e-01,0.52,0.6,0.2,0.28
-3.34440e-01,0.52,0.44,0.2,0.12
-3.34432e-01,0.52,0.6,0.2,0.28
-3.34424e-01,0.52,0.44,0.12,0.04
-3.34416e-01,0.52,0.6,-3,0.2
-3.34408e-01,-2.76,0.0400002,-3.08,-3.88
-3.34400e-01,-2.68,0.6,-2.92,0.2
-3.34392e-01,-2.76,-3.8,-3,-3.24
-3.34384e-01,-2.68,0.6,-3,-2.76
-3.34376e-01,-2.68,-2.76,-2.92,-3.08
-3.34368e-01,-2.68,-2.6,-2.92,-2.92
-3.34360e-01,-2.68,-2.76,-3,-3.08
-3.34352e-01,-2.68,-2.6,-2.92,-2.92
-3.34344e-01,-2.6,-2.76,-3,-3.08
-3.34336e-01,-2.68,-2.6,0.2,-2.92
-3.34328e-01,-2.68,-2.76,0.2,-3.08
-3.34320e-01,-2.68,-2.52,0.2,0.28
